…
#### Autres fonctions

Il existe plusieurs autres fonctions possibles. Notamment, `slice()` permet de choisir les unités désirées en passant comme argument la base de données et le ou les numéros de ligne; `sample_slice()` qui est très similaire, retourne des lignes aléatoires; `rename()`, similaire à `select()`, permet de renommer les variables; `arrange` reclasse par ordre croissant en fonction d'une variable placée en argument. Et il y en a plusieurs autres.

### Mise en situation

Pour mettre en pratique la philosophie `tidyverse`, voici un exemple tiré du jeu de données `starwars` (disponible du `tidyverse`). Ce jeu de données possède de nombreuses caractéristiques (diversité de variables, de mesures, données manquantes) qui en font un jeu de données similaires à ce qu'un expérimentateur pourrait obtenir.

Sans plus de préliminaire, la fonction `head()` donne un aperçu du jeu de données 


``` r
starwars[,1:6]
> # A tibble: 87 × 6
>    name         height  mass hair_color skin_color eye_color
>    <chr>         <int> <dbl> <chr>      <chr>      <chr>    
>  1 Luke Skywal…    172    77 blond      fair       blue     
>  2 C-3PO           167    75 <NA>       gold       yellow   
>  3 R2-D2            96    32 <NA>       white, bl… red      
>  4 Darth Vader     202   136 none       white      yellow   
>  5 Leia Organa     150    49 brown      light      brown    
>  6 Owen Lars       178   120 brown, gr… light      blue     
>  7 Beru Whites…    165    75 brown      light      blue     
>  8 R5-D4            97    32 <NA>       white, red red      
>  9 Biggs Darkl…    183    84 black      light      brown    
> 10 Obi-Wan Ken…    182    77 auburn, w… fair       blue-gray
> # ℹ 77 more rows
```
…
