6 Importation de jeux de données | Méthodes Quantitatives avec R
…
L’objectif est de cette mise en situation est de comparer les hommes et les femmes humaines par rapport à leur indice de masse corporelle (IMC) ou body mass index (BMI). Le calcul de l’IMC consiste à diviser le poids par la taille au carré (kg/m2).

Les étapes à considérer sont les suivantes : sélectionner les variables pertinentes, filtrer en retirant les unités d’espèces non humaines, tenir compte des données manquantes, corriger la taille des unités qui devrait être en mètre et non en centimètre (divisé par 100) et créer l’indice de masse corporelle.

# Importer le tidyverse avant de commencer
library(tidyverse)

jd = starwars %>% 
  select(sex, mass, height, species) %>% 
  filter(species == "Human") %>% 
  na.omit() %>% 
  mutate(height = height  / 100) %>% 
  mutate(IMC = mass / height^2)  
jd
#> # A tibble: 22 x 5
#>    sex     mass height species   IMC
#>    <chr>  <dbl>  <dbl> <chr>   <dbl>
#>  1 male      77   1.72 Human    26.0
#>  2 male     136   2.02 Human    33.3
#>  3 female    49   1.5  Human    21.8
#>  4 male     120   1.78 Human    37.9
#>  5 female    75   1.65 Human    27.5
#>  6 male      84   1.83 Human    25.1
#>  7 male      77   1.82 Human    23.2
#>  8 male      84   1.88 Human    23.8
#>  9 male      80   1.8  Human    24.7
#> 10 male      77   1.7  Human    26.6
#> # ... with 12 more rows
…
puis, na.omit() %>% retire les valeurs manquantes des unités dans le jeu de données et passe aux fonctions subséquentes;

puis, mutate(height = height  / 100) %>%, transforme la variable height et passe à la dernière fonction;

enfin, mutate(IMC = mass / height^2) crée la variable d’IMC.

Si une méthode plus traditionnelle avait été utilisée, la syntaxe pourrait ressembler à ceci.

jd = starwars[, c("sex", "mass", "height", "species")]  # select()
jd = jd[jd[, "species"] == "Human",]                    # filter()
jd = na.omit(jd)                                        # na.omit()
jd[,"height"] = jd[,"height"] / 100                     # mutate()
jd[,"IMC"] = jd[,"mass"] / jd[,"height"]^2              # mutate()
jd
#> # A tibble: 22 x 5
#>    sex     mass height species   IMC
#>    <chr>  <dbl>  <dbl> <chr>   <dbl>
#>  1 male      77   1.72 Human    26.0
#>  2 male     136   2.02 Human    33.3
#>  3 female    49   1.5  Human    21.8
#>  4 male     120   1.78 Human    37.9
#>  5 female    75   1.65 Human    27.5
#>  6 male      84   1.83 Human    25.1
#>  7 male      77   1.82 Human    23.2
#>  8 male      84   1.88 Human    23.8
#>  9 male      80   1.8  Human    24.7
#> 10 male      77   1.7  Human    26.6
#> # ... with 12 more rows
…
